KIDS:

Kidsroom
Kidsroom2
NewTemp2
NewTemp4
NewTemp5
Kids1_G
Josh10
Josh13
tinyFrustrating  

------------------
ICE:

IceLevel
Ice1
Ice2
Ice3
NewTemp3


------------------
CANYON:

NewCanyon1
NewCanyon2
NewCanyon3
Josh12
Josh14
Josh9


------------------
FACTORY:

Factory1
dsouls
Josh11
fabs4
fabs5
fabs17
fabs21

